…
# TASK 5
## How is life expectancy changing over time on different continents?


```r
task5 = gapminder %>% 
  group_by(year, continent) %>% 
  summarize(meanlife = mean(lifeExp)) %>% 
  arrange(continent)
  as_tibble(task5)
```

```
## # A tibble: 60 x 3
##     year continent meanlife
##    <int> <fct>        <dbl>
##  1  1952 Africa        39.1
##  2  1957 Africa        41.3
##  3  1962 Africa        43.3
##  4  1967 Africa        45.3
##  5  1972 Africa        47.5
##  6  1977 Africa        49.6
##  7  1982 Africa        51.6
##  8  1987 Africa        53.3
##  9  1992 Africa        53.6
## 10  1997 Africa        53.6
## # … with 50 more rows
```
…
# TASK 6
## Looking at population recovery in countries post genocide: Rwanda, Cambodia compared one country without.


```r
task6 = gapminder %>% 
  filter(country == 'Rwanda' | country == 'Cambodia' | country == 'Canada') %>% 
  group_by(country) %>% 
  arrange(country, year) %>% 
  mutate(pct_change = ((lifeExp/lag(lifeExp) - 1) * 100))
  as_tibble(task6)
```

```
## # A tibble: 36 x 7
##    country  continent  year lifeExp      pop gdpPercap pct_change
##    <fct>    <fct>     <int>   <dbl>    <int>     <dbl>      <dbl>
##  1 Cambodia Asia       1952    39.4  4693836      368.      NA   
##  2 Cambodia Asia       1957    41.4  5322536      434.       4.94
##  3 Cambodia Asia       1962    43.4  6083619      497.       4.95
##  4 Cambodia Asia       1967    45.4  6960067      523.       4.61
##  5 Cambodia Asia       1972    40.3  7450606      422.     -11.2 
##  6 Cambodia Asia       1977    31.2  6978607      525.     -22.6 
##  7 Cambodia Asia       1982    51.0  7272485      624.      63.2 
##  8 Cambodia Asia       1987    53.9  8371791      684.       5.80
##  9 Cambodia Asia       1992    55.8 10150094      682.       3.50
## 10 Cambodia Asia       1997    56.5 11782962      734.       1.31
## # … with 26 more rows
```
…
