Homework 5
…
Exercise 2

Choose one dataset to explore by: I have chosen Gapminder as the dataset and country as the factor

Then explore the effects by 1) Comparing the results of arrange on the original and re-leveled factor and 2) Plotting a figure of before/after re-leveling the factor.

Exploration of Factor:

##  Factor w/ 142 levels "Afghanistan",..: 1 1 1 1 1 1 1 1 1 1 ...

## [1] 1704

## [1] 142

## # A tibble: 142 x 1
##    value      
##    <chr>      
##  1 Afghanistan
##  2 Albania    
##  3 Algeria    
##  4 Angola     
##  5 Argentina  
##  6 Australia  
##  7 Austria    
##  8 Bahrain    
##  9 Bangladesh 
## 10 Belgium    
## #  with 132 more rows

Remove Observations associated with Oceania:

## [1] 142

## [1] 1680

## [1] 140

## # A tibble: 140 x 1
##    value      
##    <chr>      
##  1 Afghanistan
##  2 Albania    
##  3 Algeria    
##  4 Angola     
##  5 Argentina  
##  6 Austria    
##  7 Bahrain    
##  8 Bangladesh 
##  9 Belgium    
## 10 Benin      
## #  with 130 more rows
…
Exercise 3: File input/output

1) Export a grouped dataset to .csv

as_tibble(groupedgapminder <- gapminder %>% 
  group_by(country) %>% 
  summarize(Min_lifeExp = min(lifeExp), Min_gdpPercap = min(gdpPercap)))

## # A tibble: 142 x 3
##    country     Min_lifeExp Min_gdpPercap
##    <fct>             <dbl>         <dbl>
##  1 Afghanistan        28.8          635.
##  2 Albania            55.2         1601.
##  3 Algeria            43.1         2449.
##  4 Angola             30.0         2277.
##  5 Argentina          62.5         5911.
##  6 Australia          69.1        10040.
##  7 Austria            66.8         6137.
##  8 Bahrain            50.9         9867.
##  9 Bangladesh         37.5          630.
## 10 Belgium            68           8343.
## #  with 132 more rows
…
I ordered countries by minimun life expectancy. The file "survived the round trip of writing to file and reading back in.

readgapminder <- read_csv(here::here("Homework5","groupedgapminder.csv"))

## Parsed with column specification:
## cols(
##   country = col_character(),
##   Min_lifeExp = col_double(),
##   Min_gdpPercap = col_double()
## )

readgapminder %>% 
  arrange(fct_reorder(country,Min_lifeExp, min))

## # A tibble: 142 x 3
##    country       Min_lifeExp Min_gdpPercap
##    <chr>               <dbl>         <dbl>
##  1 Rwanda               23.6          493.
##  2 Afghanistan          28.8          635.
##  3 Gambia               30            485.
##  4 Angola               30.0         2277.
##  5 Sierra Leone         30.3          575.
##  6 Cambodia             31.2          368.
##  7 Mozambique           31.3          390.
##  8 Burkina Faso         32.0          543.
##  9 Guinea-Bissau        32.5          300.
## 10 Yemen, Rep.          32.5          782.
## #  with 132 more rows
…
