…
## Exercise 3.1: For each guest in the guestlist (guest tibble), add a column for email address, which can be found in the email tibble.


```r
(new_email = email %>%
   separate_rows(guest, sep = ", ") %>% 
   rename(name = guest))
```

```
## # A tibble: 28 x 2
##    name            email              
##    <chr>           <chr>              
##  1 Sommer Medrano  sommm@gmail.com    
##  2 Phillip Medrano sommm@gmail.com    
##  3 Blanka Medrano  sommm@gmail.com    
##  4 Emaan Medrano   sommm@gmail.com    
##  5 Blair Park      bpark@gmail.com    
##  6 Nigel Webb      bpark@gmail.com    
##  7 Sinead English  singlish@hotmail.ca
##  8 Ayra Marks      marksa42@gmail.com 
##  9 Jolene Welsh    jw1987@hotmail.com 
## 10 Hayley Booker   jw1987@hotmail.com 
## # … with 18 more rows
```

```r
guest %>% 
  inner_join(new_email, by = 'name')
```

```
## # A tibble: 25 x 8
##    party name  meal_wedding meal_brunch attendance_wedd… attendance_brun…
##    <dbl> <chr> <chr>        <chr>       <chr>            <chr>           
##  1     1 Somm… PENDING      PENDING     PENDING          PENDING         
##  2     1 Phil… vegetarian   Menu C      CONFIRMED        CONFIRMED       
##  3     1 Blan… chicken      Menu A      CONFIRMED        CONFIRMED       
##  4     1 Emaa… PENDING      PENDING     PENDING          PENDING         
##  5     2 Blai… chicken      Menu C      CONFIRMED        CONFIRMED       
##  6     2 Nige… <NA>         <NA>        CANCELLED        CANCELLED       
##  7     3 Sine… PENDING      PENDING     PENDING          PENDING         
##  8     4 Ayra… vegetarian   Menu B      PENDING          PENDING         
##  9     6 Jole… <NA>         <NA>        CANCELLED        CANCELLED       
## 10     6 Hayl… vegetarian   Menu C      CONFIRMED        CONFIRMED       
## # … with 15 more rows, and 2 more variables: attendance_golf <chr>,
## #   email <chr>
```
…
## Make a guestlist that includes everyone we have emails for (in addition to those on the original guestlist).


```r
(new_guestlist = new_email %>% 
  full_join(guest, by = "name") %>% 
  filter(email != 'NA')) %>% 
  select(name, email)
```

```
## # A tibble: 28 x 2
##    name            email              
##    <chr>           <chr>              
##  1 Sommer Medrano  sommm@gmail.com    
##  2 Phillip Medrano sommm@gmail.com    
##  3 Blanka Medrano  sommm@gmail.com    
##  4 Emaan Medrano   sommm@gmail.com    
##  5 Blair Park      bpark@gmail.com    
##  6 Nigel Webb      bpark@gmail.com    
##  7 Sinead English  singlish@hotmail.ca
##  8 Ayra Marks      marksa42@gmail.com 
##  9 Jolene Welsh    jw1987@hotmail.com 
## 10 Hayley Booker   jw1987@hotmail.com 
## # … with 18 more rows
```
